module gitlab.com/EbonJaeger/dolphin

go 1.14

require (
	github.com/DataDrake/waterlog v1.0.5
	github.com/diamondburned/arikawa v1.3.14
	github.com/fsnotify/fsnotify v1.4.9 // indirect
	github.com/google/go-cmp v0.5.2
	github.com/gorilla/schema v1.2.0 // indirect
	github.com/jessevdk/go-flags v1.4.0
	github.com/nxadm/tail v1.4.5
	github.com/pelletier/go-toml v1.8.1
	golang.org/x/sys v0.0.0-20201106081118-db71ae66460a // indirect
	golang.org/x/time v0.0.0-20200630173020-3af7569d3a1e // indirect
	golang.org/x/xerrors v0.0.0-20200804184101-5ec99f83aff1 // indirect
)
